{
    "key": "group_592fd88fb4838",
    "title": "Footer",
    "private": true,
    "fields": [
        {
            "key": "field_592fdb59946d8",
            "label": "General Settings",
            "name": "",
            "type": "tab",
            "instructions": "",
            "required": 0,
            "conditional_logic": 0,
            "placement": "top",
            "endpoint": 0
        },
        {
            "key": "field_5937e0a52b488cexmod60",
            "label": "",
            "name": "",
            "type": "message",
            "instructions": "",
            "required": 0,
            "conditional_logic": 0,
            "message": "<p class=\"message\"><span class=\"icon ion-information-circled\"></span> <b>Note:</b> these settings apply to all footer elements of your website.</p>",
            "new_lines": "",
            "esc_html": 0
        },
        {
            "key": "field_592fd8901e284",
            "label": "Footer visibility",
            "name": "global_page_footer_visibility",
            "type": "true_false",
            "instructions": "Show footer on all pages?",
            "required": 0,
            "conditional_logic": 0,
            "message": "",
            "default_value": 1,
            "ui": 1,
            "ui_on_text": "Hide",
            "ui_off_text": "Show"
        },
        {
            "key": "field_592fd8901ea9a",
            "label": "Footer content wrapper",
            "name": "global_page_footer_is_wrapped",
            "type": "true_false",
            "instructions": "Add footer content wrapper to all pages",
            "required": 0,
            "conditional_logic": 0,
            "message": "",
            "default_value": 1,
            "ui": 1,
            "ui_on_text": "Yes",
            "ui_off_text": "No"
        },
        {
            "key": "field_591ac5s9d31fqawsfvawg",
            "label": "Footer content wrapper width",
            "name": "global_page_footer_content_wrapper_width",
            "type": "text",
            "instructions": "Define the container wrapper width <em>(Default value: 1300px)</em>",
            "required": 0,
            "conditional_logic": 0,
            "default_value": "",
            "placeholder": "",
            "prepend": "Use CSS units",
            "append": "",
            "maxlength": 200
        },
        {
            "key": "field_591b10dbb4a85_fasgfaq3qa",
            "label": "Footer full-width layout spacing",
            "name": "global_page_footer_full_width_margins_size",
            "type": "text",
            "instructions": "Define the side gap for a full-width page layout",
            "required": 0,
            "conditional_logic": 0,
            "default_value": "",
            "placeholder": "",
            "prepend": "Use CSS units",
            "append": "",
            "maxlength": 200
        },
        {
            "key": "field_592fd8901ca70grp",
            "label": "Footer background",
            "name": "global_page_footer",
            "type": "clone",
            "instructions": "Choose footer background",
            "required": false,
            "conditional_logic": false,
            "clone": [
                "group_982e082a3bcfcf81b766eaa1ec2df4f11e0f5cd3"
            ],
            "display": "group",
            "layout": "block",
            "prefix_label": false,
            "prefix_name": true
        },
        {
            "key": "field_593916111579e",
            "label": "Sticky footer",
            "name": "global_page_footer_is_sticky",
            "type": "true_false",
            "instructions": "Set footer to be sticky (fixed) on all pages",
            "required": 0,
            "conditional_logic": 0,
            "message": "",
            "default_value": 0,
            "ui": 1,
            "ui_on_text": "",
            "ui_off_text": ""
        },

        {
            "key": "field_593235346111579e",
            "label": "Fixed typography dynamic colors",
            "name": "global_page_footer_fixed_typography_color",
            "type": "true_false",
            "instructions": "Set color change for fixed typography (social links, back link etc.)",
            "required": 0,
            "conditional_logic": 0,
            "message": "",
            "default_value": 0,
            "ui": 1,
            "ui_on_text": "",
            "ui_off_text": ""
        },

        {
            "key": "field_592s31s15af5g9t",
            "label": "<h4>Typography Settings</h4>",
            "name": "",
            "type": "message"
        },

        {
            "key": "field_5940e34gvedrgiqw",
            "label": "Footer widget heading",
            "name": "global_page_footer_widget_title_typo",
            "type": "ohio_typo",
            "instructions": "Set up typography styles for widget heading",
            "required": 0,
            "conditional_logic": 0
        },
        {
            "key": "field_5940ebca457f2",
            "label": "Footer widget content",
            "name": "global_page_footer_text_typo",
            "type": "ohio_typo",
            "instructions": "Set up typography styles for widget content",
            "required": 0,
            "conditional_logic": 0
        },
        {
            "key": "field_592fdb63946d9",
            "label": "Copyright Bar",
            "name": "",
            "type": "tab",
            "instructions": "",
            "required": 0,
            "conditional_logic": 0,
            "placement": "top",
            "endpoint": 0
        },
        {
            "key": "field_592fd8901ee80",
            "label": "Copyright bar visibility",
            "name": "global_page_footer_copyright_visibility",
            "type": "true_false",
            "instructions": "Show copyright bar on all pages?",
            "required": 0,
            "conditional_logic": 0,
            "message": "",
            "default_value": 1,
            "ui": 1,
            "ui_on_text": "Yes",
            "ui_off_text": "No"
        },
        {
            "key": "field_592fd8901d6a1",
            "label": "Copyright bar content position",
            "name": "global_footer_copyright_alignment",
            "type": "select",
            "instructions": "Choose copyright content position",
            "required": 0,
            "conditional_logic": 0,
            "choices": {
                "left_and_right": "Left and right",
                "center": "Center"
            },
            "default_value": [
                "left_and_right"
            ],
            "allow_null": 0,
            "multiple": 0,
            "ui": 0,
            "ajax": 0,
            "return_format": "value",
            "placeholder": ""
        },
        {
            "key": "field_592fd8901f24bae3",
            "label": "Copyright bar content",
            "name": "global_footer_copyright_center",
            "type": "text",
            "instructions": "Add some content to copyright bar. You can use HTML tags",
            "required": 0,
            "conditional_logic": [
                [
                    {
                        "field": "field_592fd8901d6a1",
                        "operator": "==",
                        "value": "center"
                    }
                ]
            ],
            "default_value": "\u00a9 2020, Ohio Theme. Made with passion by <a href=\"http:\/\/clbthemes.com\" target=\"_blank\">Colabrio<\/a>.",
            "placeholder": "",
            "prepend": "",
            "append": "",
            "maxlength": ""
        },
        {
            "key": "field_592fd8901f24baes",
            "label": "Left content item",
            "name": "global_footer_copyright_left",
            "type": "text",
            "instructions": "Add some content to copyright bar <em>(Use HTML tags)</em>",
            "required": 0,
            "conditional_logic": [
                [
                    {
                        "field": "field_592fd8901d6a1",
                        "operator": "==",
                        "value": "left_and_right"
                    }
                ]
            ],
            "default_value": "\u00a9 2020, Ohio Theme. Made with passion by <a href=\"http:\/\/clbthemes.com\" target=\"_blank\">Colabrio<\/a>.",
            "placeholder": "",
            "prepend": "",
            "append": "",
            "maxlength": ""
        },
        {
            "key": "field_592fd8901f24bfee",
            "label": "Right content item",
            "name": "global_footer_copyright_right",
            "type": "text",
            "instructions": "Add some content to copyright bar <em>(Use HTML tags)</em>",
            "required": 0,
            "conditional_logic": [
                [
                    {
                        "field": "field_592fd8901d6a1",
                        "operator": "==",
                        "value": "left_and_right"
                    }
                ]
            ],
            "default_value": "All right reserved.",
            "placeholder": "",
            "prepend": "",
            "append": "",
            "maxlength": ""
        },
        {
            "key": "field_592fd8901f63agrp",
            "label": "Copyright bar background",
            "name": "global_page_footer_copyright_section",
            "type": "clone",
            "instructions": "Setup copyright section background",
            "required": false,
            "conditional_logic": false,
            "clone": [
                "group_982e082a3bcfcf81b766eaa1ec2df4f11e0f5cd3"
            ],
            "display": "group",
            "layout": "block",
            "prefix_label": false,
            "prefix_name": true
        },

        {
            "key": "field_592s37s15af5g9t",
            "label": "<h4>Typography Settings</h4>",
            "name": "",
            "type": "message"
        },

        {
            "key": "field_592fd8901fa31",
            "label": "Copyright bar typography",
            "name": "global_page_footer_copyright_section_text_typo",
            "type": "ohio_typo",
            "instructions": "Choose copyright bar typography",
            "required": 0,
            "conditional_logic": 0,
            "default_value": ""
        },
        {
            "key": "field_592fd8901fa32",
            "label": "Copyright links typography",
            "name": "global_page_footer_copyright_section_links_color",
            "type": "ohio_color",
            "instructions": "Choose copyright bar links color",
            "required": 0,
            "conditional_logic": 0,
            "default_value": ""
        },
        {
            "key": "field_592fdb17946d7",
            "label": "Other Settings",
            "name": "",
            "type": "tab",
            "instructions": "",
            "required": 0,
            "conditional_logic": 0,
            "placement": "top",
            "endpoint": 0
        },

        {
            "key": "field_5937a7a521f8sebmod23",
            "label": "<h4>Logo Widget</h4>",
            "name": "",
            "type": "message"
        },

        {
            "key": "field_592fd8901ba9e",
            "label": "Brand logo",
            "name": "global_page_footer_logo_widget_type",
            "type": "select",
            "instructions": "Choose footer logo type",
            "required": 0,
            "conditional_logic": 0,
            "choices": {
                "light_variant": "Light variant logo",
                "dark_variant": "Dark variant logo",
                "sitename": "Text logo",
                "custom": "Custom loaded image"
            },
            "default_value": [
                "light_variant"
            ],
            "allow_null": 0,
            "multiple": 0,
            "ui": 0,
            "ajax": 0,
            "return_format": "value",
            "placeholder": ""
        },
        {
            "key": "field_592fd8901beb6",
            "label": "Text logo settings",
            "name": "global_page_footer_sitename_typo",
            "type": "ohio_typo",
            "instructions": "Custom typography settings for site name",
            "required": 0,
            "conditional_logic": [
                [
                    {
                        "field": "field_592fd8901ba9e",
                        "operator": "==",
                        "value": "sitename"
                    }
                ]
            ],
            "add_theme_inherited": false
        },
        {
            "key": "field_592fd8901c689",
            "label": "Logo image",
            "name": "global_page_footer_custom_logo",
            "type": "image",
            "instructions": "Upload custom image for footer logo",
            "required": 0,
            "conditional_logic": [
                [
                    {
                        "field": "field_592fd8901ba9e",
                        "operator": "==",
                        "value": "custom"
                    }
                ]
            ],
            "return_format": "url",
            "preview_size": "thumbnail",
            "library": "all",
            "min_width": 10,
            "min_height": 10,
            "min_size": "",
            "max_width": 1600,
            "max_height": 800,
            "max_size": 5,
            "mime_types": ""
        }
    ],
    "location": [
        [
            {
                "param": "options_page",
                "operator": "==",
                "value": "theme-general-footer"
            }
        ]
    ],
    "menu_order": 1,
    "position": "normal",
    "style": "default",
    "label_placement": "left",
    "instruction_placement": "label",
    "hide_on_screen": "",
    "active": 1,
    "description": ""
}