{
    "key": "group_593dd5f5615b0",
    "title": "Blog Settings",
    "private": true,
    "fields": [
        {
            "key": "field_591b002d4818sffmod",
            "label": "Blog Layout",
            "name": "",
            "type": "tab",
            "instructions": "",
            "required": 0,
            "conditional_logic": 0,
            "placement": "top",
            "endpoint": 0
        },
        {
            "key": "field_593dd5f56ca9d",
            "label": "",
            "name": "",
            "type": "message",
            "instructions": "",
            "required": 0,
            "conditional_logic": 0,
            "message": "<p class=\"message\"><span class=\"icon ion-information-circled\"></span> <b>Note:</b> to find more blog options navigate to global settings <b>Theme Settings &gt; Blog Settings</b></p>",
            "new_lines": "wpautop",
            "esc_html": 0
        },
        {
            "key": "field_593dd5f56bae0",
            "label": "Blog layout",
            "name": "blog_item_layout_type",
            "type": "image_option",
            "instructions": "Choose blog grid layout type",
            "required": 0,
            "conditional_logic": 0,
            "image_option_value": [
                {
                    "name": "inherit",
                    "description": "Use from Theme Settings",
                    "src": "acf__image_inherited.svg"
                },
                {
                    "name": "blog_grid_1",
                    "description": "Classic grid",
                    "src": "acf__image_portfolio_01.svg"
                },
                {
                    "name": "blog_grid_2",
                    "description": "Minimal grid",
                    "src": "acf__image_portfolio_02.svg"
                },
                {
                    "name": "blog_grid_3",
                    "description": "Split grid",
                    "src": "acf__image_portfolio_39.svg"
                },
                {
                    "name": "blog_grid_4",
                    "description": "Inner details grid",
                    "src": "acf__image_portfolio_40.svg"
                },
                {
                    "name": "blog_grid_5",
                    "description": "Small thumbnail grid",
                    "src": "acf__image_portfolio_41.svg"
                }
            ],
            "default_value": "inherit",
            "allow_null": 0,
            "multiple": 0,
            "ui": 0,
            "ajax": 0,
            "return_format": "value",
            "placeholder": ""
        },
        {
            "key": "field_592d60af8b3f9afs",
            "label": "Blog hover effect",
            "name": "blog_item_hover_type",
            "type": "select",
            "instructions": "Choose hover effect type for blog items",
            "required": 0,
            "conditional_logic": 0,
            "choices": {
                "inherit": "Use from Theme Settings",
                "type1": "Image Scaling",
                "type2": "Color Overlay",
                "type3": "Greyscale",
                "type4": "Image Parallax"
            },
            "default_value": "inherit",
            "allow_null": 0,
            "multiple": 0,
            "ui": 0,
            "ajax": 0,
            "return_format": "value",
            "placeholder": ""
        },
        {
            "key": "field_593dd5f56af4c",
            "label": "Blog grid layout",
            "name": "blog_page_layout",
            "type": "radio",
            "instructions": "Choose grid layout type",
            "required": 0,
            "conditional_logic": 0,
            "choices": {
                "inherit": "Use from Theme Settings",
                "classic": "Classic layout",
                "masonry": "Masonry layout"
            },
            "allow_null": 0,
            "other_choice": 0,
            "save_other_choice": 0,
            "default_value": "inherit",
            "layout": "horizontal",
            "return_format": "value"
        },
        {
            "key": "field_593dd5f56c2b2",
            "label": "Blog grid spacing",
            "name": "grid_items_without_padding",
            "type": "inherited_checkbox",
            "instructions": "Remove spacing between grid items",
            "required": 0,
            "conditional_logic": 0,
            "custom_labels": {
                "inherit": "Use from Theme Settings",
                "yes": "Yes",
                "no": "No"
            },
            "default_value": "inherit",
            "layout": "horizontal",
            "return_format": "value"
        },

        {
            "key": "field_59ccb100ba6f7nomod",
            "label": "Blog categories",
            "name": "blog_categories",
            "type": "taxonomy",
            "instructions": "Leave empty if want show all categories",
            "required": 0,
            "conditional_logic": 0,
            "taxonomy": "category",
            "field_type": "multi_select",
            "allow_null": 0,
            "add_term": 0,
            "save_terms": 0,
            "load_terms": 0,
            "return_format": "object",
            "multiple": 1
        },
        {
            "key": "field_5937a0a253d23s15u",
            "label": "<h4>Number of Posts</h4>",
            "name": "",
            "type": "message"
        },

        {
            "key": "field_593dd5f56b70f",
            "label": "Blog items per page",
            "name": "blog_posts_per_page",
            "type": "number",
            "instructions": "Choose the number of blog items per page",
            "required": 0,
            "conditional_logic": 0,
            "default_value": 24,
            "placeholder": "",
            "prepend": "",
            "append": "posts",
            "min": 1,
            "max": 100,
            "step": 1
        },

        {
            "key": "field_593dd5f56b310",
            "label": "Blog items per row",
            "name": "blog_columns_in_row",
            "type": "ohio_columns",
            "instructions": "Choose the number of blog items per row",
            "required": 0,
            "conditional_logic": 0,
            "default_value": "i-i-i",
            "allow_null": 0,
            "multiple": 0,
            "ui": 0,
            "ajax": 0,
            "return_format": "value",
            "placeholder": "",
            "use_inherit": true
        },

        {
            "key": "field_5937a0a253d23s15l",
            "label": "<h4>Grid Appear Effect</h4>",
            "name": "",
            "type": "message"
        },

        {
            "key": "field_592d60af8a7ffmo7ds",
            "label": "Grid animation",
            "name": "page_animation_type",
            "type": "radio",
            "instructions": "Choose grid animation type",
            "required": 0,
            "conditional_logic": 0,
            "choices": {
                "inherit": "Use from Theme Settings",
                "default": "Disable animation",
                "sync": "Sync animation",
                "async": "Async animation"
            },
            "allow_null": 0,
            "other_choice": 0,
            "save_other_choice": 0,
            "default_value": "inherit",
            "layout": "horizontal",
            "return_format": "value"
        },
        {
            "key": "field_592d60af8ac17d27mo7ds",
            "label": "Grid animation effect",
            "name": "page_animation_effect",
            "type": "select",
            "instructions": "Choose blog items appear effect",
            "required": 0,
            "conditional_logic": 0,
            "choices": {
                "fade-up": "Fade up",
                "fade-left": "Fade left",
                "fade-right": "Fade right",
                "slide-up": "Slide up",
                "flip-up": "Flip up",
                "zoom-in": "Zoom in"
            },
            "default_value": ["inherit"],
            "allow_null": 0,
            "multiple": 0,
            "ui": 0,
            "ajax": 0,
            "return_format": "value",
            "placeholder": ""
        },

        {
            "key": "field_5937a0a253d23s15h",
            "label": "<h4>Post Card</h4>",
            "name": "",
            "type": "message"
        },

        {
            "key": "field_59f2342343g531f",
            "label": "Metro style",
            "name": "blog_metro_style",
            "type": "inherited_checkbox",
            "instructions": "Convert blog's image to a square",
            "required": 0,
            "conditional_logic": 0,
            "custom_labels": {
                "inherit": "Use from Theme Settings",
                "yes": "Show",
                "no": "Hide"
            },
            "allow_null": 0,
            "other_choice": 0,
            "save_other_choice": 0,
            "default_value": "inherit",
            "layout": "horizontal",
            "return_format": "value"
        },

        {
            "key": "field_592d60affsafr4gdt25",
            "label": "Boxed layout",
            "name": "blog_items_boxed_style",
            "type": "radio",
            "instructions": "Use boxed layout post items",
            "required": 0,
            "conditional_logic": 0,
            "choices": {
                "inherit": "Use from Theme Settings",
                "boxed": "Boxed layout",
                "default": "Default layout"
            },
            "allow_null": 0,
            "other_choice": 0,
            "save_other_choice": 0,
            "default_value": "inherit",
            "layout": "horizontal",
            "return_format": "value"
        },
        {
            "key": "field_593f23hmnty31",
            "label": "Post card background",
            "name": "posts_card_background_color",
            "type": "ohio_color",
            "instructions": "Choose post card background color",
            "conditional_logic": [
                [
                    {
                        "field": "field_592d60affsafr4gdt25",
                        "operator": "!=",
                        "value": "default"
                    }
                ]
            ],
            "required": 0,
            "default_value": ""
        },
        {
            "key": "field_593ffgll21g5g412",
            "label": "Post card alignment",
            "name": "posts_text_alignment",
            "type": "select",
            "instructions": "Choose text alignment for blog items",
            "required": 0,
            "conditional_logic": 0,
            "choices": {
                "inherit": "Use from Theme Settings",
                "left": "Left",
                "center": "Center",
                "right": "Right"
            },
            "default_value": "inherit",
            "allow_null": 0,
            "multiple": 0,
            "ui": 0,
            "ajax": 0,
            "return_format": "value",
            "placeholder": ""
        },
        {
            "key": "field_591b002d4817sffmod",
            "label": "Blog Page",
            "name": "",
            "type": "tab",
            "instructions": "",
            "required": 0,
            "conditional_logic": 0,
            "placement": "top",
            "endpoint": 0
        },

        {
            "key": "field_5937a0a253d23s1fb",
            "label": "<h4>Blog Page Pagination</h4>",
            "name": "",
            "type": "message"
        },

        {
            "key": "field_593dd5f56ba30",
            "label": "Pagination",
            "name": "pagination_type",
            "type": "select",
            "instructions": "Choose pagination type for blog page",
            "required": 0,
            "conditional_logic": 0,
            "choices": {
                "inherit": "Use from Theme Settings",
                "simple": "Simple",
                "standard": "Standard",
                "lazy_scroll": "Lazy load",
                "lazy_button": "Load more"
            },
            "default_value": ["simple"],
            "allow_null": 0,
            "multiple": 0,
            "ui": 0,
            "ajax": 0,
            "return_format": "value",
            "placeholder": ""
        },
        {
            "key": "field_593dd523442330",
            "label": "Pagination position",
            "name": "pagination_position",
            "type": "select",
            "instructions": "Choose pagination position for blog page",
            "required": 0,
            "conditional_logic": 0,
            "choices": {
                "inherit": "Use from Theme Settings",
                "left": "Left",
                "center": "Center",
                "right": "Right"
            },
            "default_value": ["left"],
            "allow_null": 0,
            "multiple": 0,
            "ui": 0,
            "ajax": 0,
            "return_format": "value",
            "placeholder": ""
        }
    ],
    "location": [
        [
            {
                "param": "page_template",
                "operator": "==",
                "value": "page_templates/page_for-posts.php"
            },
            {
                "param": "post_type",
                "operator": "==",
                "value": "page"
            }
        ]
    ],
    "menu_order": 0,
    "position": "normal",
    "style": "default",
    "label_placement": "left",
    "instruction_placement": "label",
    "hide_on_screen": "",
    "active": 1,
    "description": ""
}
